userId,movieId,tag,timestamp
15,339,sandra 'boring' bullock,1138537770
15,1955,dentist,1193435061
15,7478,Cambodia,1170560997
15,32892,Russian,1170626366
15,34162,forgettable,1141391765
15,35957,short,1141391873
15,37729,dull story,1141391806
15,45950,powerpoint,1169616291
15,100365,activist,1425876220
15,100365,documentary,1425876220
15,100365,uganda,1425876220
23,150,Ron Howard,1148672905
68,2174,music,1249808064
68,2174,weird,1249808102
68,8623,Steve Martin,1249808497
73,107999,action,1430799184
73,107999,anime,1430799184
73,107999,kung fu,1430799184
73,111624,drama,1431584497
73,111624,indie,1431584497
73,111624,love,1431584497
73,130682,b movie,1432523704
73,130682,comedt,1432523704
73,130682,horror,1432523704
77,1199,Trilogy of the Imagination,1163220043
77,2968,Gilliam,1163220138
77,2968,Trilogy of the Imagination,1163220039
77,4467,Trilogy of the Imagination,1163220065
77,4911,Gilliam,1163220167
77,5909,Takashi Miike,1163219591
77,47465,Gilliam,1163220186
84,296,intense,1429911417
84,296,r:violence,1429911417
84,296,tarantino,1429911417
91,4388,parody,1448813502
94,1131,emotional,1291781542
94,1131,tragedy,1291781538
94,64957,original plot,1291781246
94,74458,Predictable,1291780920
106,48711,CHRISTIAN,1215923364
132,4189,jesus,1367909949
132,4612,jesus,1367909949
132,6683,bollywood,1367909913
132,6986,jesus,1367909949
132,27255,No progress,1283581045
132,27255,Too slow,1283581045
132,27255,Views,1283581045
138,260,cult classic,1440379022
138,260,Science Fiction,1440379018
138,1258,cult film,1440380361
138,1258,jack nicholson,1440380355
138,1258,psychological,1440380357
138,1258,Stanley Kubrick,1440380352
138,1704,genius,1440380467
138,1704,intellectual,1440380463
138,1704,mathematics,1440380466
138,1704,psychology,1440380470
138,4226,Mindfuck,1440380125
138,4226,nonlinear,1440380113
138,4226,psychology,1440380115
138,4226,twist ending,1440380118
138,4995,genius,1440380440
138,4995,intelligent,1440380446
138,4995,math,1440380438
138,4995,mathematics,1440380436
138,4995,twist ending,1440380448
138,48780,Christopher Nolan,1440380053
138,48780,complicated,1440380062
138,48780,Hugh Jackman,1440380072
138,48780,nonlinear,1440380067
138,48780,psychological,1440380064
138,48780,twist ending,1440380047
138,79132,alternate reality,1440380233
138,79132,Christopher Nolan,1440380255
138,79132,intellectual,1440380251
138,79132,mindfuck,1440380252
138,79132,philosophy,1440380242
138,79132,sci-fi,1440380239
138,79132,twist ending,1440380245
138,109487,artificial intelligence,1440379984
138,109487,Christopher Nolan,1440380001
138,109487,good science,1440379977
138,109487,interesting ideea,1440379991
138,109487,philosophical issues,1440379996
138,109487,physics,1440379925
138,109487,relativity,1440380500
138,109487,sci-fi,1440380008
138,109487,sentimental,1440379993
138,109487,space,1440379974
138,109487,time travel,1440379981
138,109487,time-travel,1440379968
149,121231,eerie,1436920551
149,121231,friendship,1436920551
149,121231,teenagers,1436920551
152,52319,World War II,1335900622
164,608,Quirky,1179031045
176,5445,Tom Cruise,1378384753
176,7458,Brad Pitt,1341055445
176,8972,Nicolas Cage,1341055378
176,69640,Johnny Depp,1340916254
176,104841,sexist,1384107184
179,260,nerdy,1436669973
179,260,Science Fiction,1436669968
187,2082,Emilio Estevez,1233517175
200,260,critically acclaimed,1437932756
200,260,Science Fiction,1437932763
200,80551,strong female presence,1438023607
212,1061,emotional,1253930128
212,1061,revenge,1253930131
212,1061,true story,1253930149
212,1732,cult film,1253929373
212,1732,dark comedy,1253929372
212,1732,satirical,1253929376
212,2359,British,1253930034
212,2641,childish plot,1253930390
212,2641,plot holes,1253930395
212,2641,superhero,1253930399
212,3257,Kevin Costner,1253930539
212,3257,snorefest,1253930543
212,3275,vigilantism,1218405594
212,3300,anti-hero,1253929917
212,3300,Cole Hauser,1253929922
212,3300,Vin Diesel,1253929910
212,3301,Amanda Peet,1253929798
212,3301,Matthew Perry,1253929802
212,3301,Rosanna Arquette,1253929813
212,3809,Bill Murray,1253931205
212,3809,quirky,1253931216
212,3882,cheerleading,1253932873
212,3882,Eliza Dushku,1253932876
212,3882,Overrated,1253932878
212,4069,standard romantic comedy,1253933882
212,5219,video game adaptation,1253930587
212,5507,play enough video games and you can become an NSA agent,1253930345
212,5507,ridiculous training sequence,1253930342
212,7373,Guillermo del Toro,1253929290
212,7373,steampunk,1253929296
212,7373,superhero,1253929293
212,8861,Oded Fehr,1253930624
212,8861,post-apocalyptic,1253930636
212,8861,Sienna Guillory,1253930633
212,8861,zombies,1253930644
212,8928,Beautiful Woman,1253926735
212,8928,campy,1253926723
212,8928,irreverent,1253926726
212,8928,quirky,1253926728
212,8928,Roman Polanski,1253926730
212,27904,good animation,1253931241
212,27904,interesting concept - bad execution,1253931234
212,27904,surrealism,1253931244
212,34405,aliens,1253928597
212,34405,black comedy,1253928590